…
## Tutorial

Download a full dataset with

```R
get_symbols("GDPC1")
```

output

```R
> get_symbols("GDPC1")
# A tibble: 311 × 3
   date       symbol values
   <date>     <chr>   <dbl>
 1 1947-01-01 GDPC1   2183.
 2 1947-04-01 GDPC1   2177.
 3 1947-07-01 GDPC1   2172.
 4 1947-10-01 GDPC1   2206.
 5 1948-01-01 GDPC1   2240.
 6 1948-04-01 GDPC1   2277.
 7 1948-07-01 GDPC1   2290.
 8 1948-10-01 GDPC1   2292.
 9 1949-01-01 GDPC1   2261.
10 1949-04-01 GDPC1   2253.
# ℹ 301 more rows
# ℹ Use `print(n = ...)` to see more rows
```
…
